"Term","StandardCode","ReferenceURI"
"poder","poder","https://opentheso.huma-num.fr//?idc=8mdgjb1m4g2dw7s&idt=th751"
"acta","acta","https://opentheso.huma-num.fr//?idc=73hrxpm51d41jvl&idt=th751"
"auto","auto","https://opentheso.huma-num.fr//?idc=22pglkg5d9r4dm1&idt=th751"
"sentencia","sentencia","https://opentheso.huma-num.fr//?idc=1002838&idt=th751"
"ratificación del tormento","ratificacionTormento","https://opentheso.huma-num.fr//?idc=1002834&idt=th751"
"mandato recorrección de registros","mandatoRecorreccionRegistros","https://opentheso.huma-num.fr//?idc=1002800&idt=th751"
"delación misiva","delacionMisiva","https://opentheso.huma-num.fr//?idc=1002782&idt=th751"
"interrogatorio del acusado","interrogatorioAcusado","https://opentheso.huma-num.fr//?idc=1002817&idt=th751"
"calificación","calificacion","https://opentheso.huma-num.fr//?idc=1002802&idt=th751"
"misiva de comisión","misivaComision","https://opentheso.huma-num.fr//?idc=1002791&idt=th751"
"defensas","defensas","https://opentheso.huma-num.fr//?idc=w26c7vkw75f2d77&idt=th751"
"mandamiento de comisión","mandamientoComision","https://opentheso.huma-num.fr//?idc=1002790&idt=th751"
"fase Indiciaria","faseIndiciaria","https://opentheso.huma-num.fr//?idc=1003232&idt=th751"
"incidencias","incidencias","https://opentheso.huma-num.fr//?idc=1002816&idt=th751"
"autodelación misiva","autodelacionMisiva","https://opentheso.huma-num.fr//?idc=1002787&idt=th751"
"informe","informe","https://opentheso.huma-num.fr//?idc=1003228&idt=th751"
"publicación de los testigos","publicacionTestigos","https://opentheso.huma-num.fr//?idc=1002823&idt=th751"
"mandamiento de calificación","mandamientoCalificacion","https://opentheso.huma-num.fr//?idc=1002804&idt=th751"
"respuesta a publicación de testigos","respuestaPublicacionTestigos","https://opentheso.huma-num.fr//?idc=1003231&idt=th751"
"interrogatorio","interrogatorio","https://opentheso.huma-num.fr//?idc=qlfk2djcv0sb9lx&idt=th751"
"respuesta recorrección de registros","respuestaRecorreccionRegistros","https://opentheso.huma-num.fr//?idc=1002801&idt=th751"
"notificación de citación","notificacionCitacion","https://opentheso.huma-num.fr//?idc=9k6th2v3c61h1hk&idt=th751"
"petición de informe del fiscal","peticionInformeFiscal","https://opentheso.huma-num.fr//?idc=1002795&idt=th751"
"suspensión de la causa","suspensionCausa","https://opentheso.huma-num.fr//?idc=0qlk9fvv0l4npw9&idt=th751"
"calificación audiencia","calificacionAudiencia","https://opentheso.huma-num.fr//?idc=1002805&idt=th751"
"publicación de testigos","publicacionTestigos","https://opentheso.huma-num.fr//?idc=1002822&idt=th751"
"clamosa","clamosa","https://opentheso.huma-num.fr//?idc=nqw3bh5wpk3kbkp&idt=th751"
"nombramiento del abogado","nombramientoAbogado","https://opentheso.huma-num.fr//?idc=1002821&idt=th751"
"detención","detencion","https://opentheso.huma-num.fr//?idc=8fv9843p9vlftm6&idt=th751"
"monición","monicion","https://opentheso.huma-num.fr//?idc=1003230&idt=th751"
"clamosa fiscal","clamosaFiscal","https://opentheso.huma-num.fr//?idc=1002810&idt=th751"
"audiencia de hacienda","audienciaHacienda","https://opentheso.huma-num.fr//?idc=1002818&idt=th751"
"audiencia previa al tormento","audienciaPreviaTormento","https://opentheso.huma-num.fr//?idc=1002832&idt=th751"
"anotaciones","anotaciones","https://opentheso.huma-num.fr//?idc=kmv180b186q9jgw&idt=th751"
"entrega a la prisión","entregaPrision","https://opentheso.huma-num.fr//?idc=1002815&idt=th751"
"confiscación de bienes","confiscacionBienes","https://opentheso.huma-num.fr//?idc=g09xhnw65g05p9p&idt=th751"
"acusación del fiscal","acusacionFiscal","https://opentheso.huma-num.fr//?idc=1002819&idt=th751"
"sentencia definitiva","sentenciaDefinitiva","https://opentheso.huma-num.fr//?idc=1002841&idt=th751"
"interrogatorio de testigo","interrogatorioTestigo","https://opentheso.huma-num.fr//?idc=1002797&idt=th751"
"aceptación de comisión","aceptacionComision","https://opentheso.huma-num.fr//?idc=1002793&idt=th751"
"autodelación","autodelacion","https://opentheso.huma-num.fr//?idc=6sr3rc53jxr39qw&idt=th751"
"misiva","misiva","https://opentheso.huma-num.fr//?idc=0jf23lqcgdh27n6&idt=th751"
"ratificación","ratificacion","https://opentheso.huma-num.fr//?idc=1002789&idt=th751"
"audiencia de tormento","audienciaTormento","https://opentheso.huma-num.fr//?idc=1002831&idt=th751"
"fase de conclusión","faseConclusion","https://opentheso.huma-num.fr//?idc=1002835&idt=th751"
"respuesta a la acusación","respuestaAcusacion","https://opentheso.huma-num.fr//?idc=1002824&idt=th751"
"memoria de testigos","memoriaTestigos","https://opentheso.huma-num.fr//?idc=pt458f4nlb2s2x7&idt=th751"
"tipologías documentales","tipologiasDocumentales","https://opentheso.huma-num.fr//?idc=67b24lsg8h94v50&idt=th751"
"nombramiento y juramento de personal","nombramientoJuramentoPersonal","https://opentheso.huma-num.fr//?idc=1002794&idt=th751"
"comunicación con el abogado","comunicacionAbogado","https://opentheso.huma-num.fr//?idc=1002825&idt=th751"
"petición de suspensión de la causa","peticionSuspensionCausa","https://opentheso.huma-num.fr//?idc=1002836&idt=th751"
"auto de suspensión de la causa","autoSuspensionCausa","https://opentheso.huma-num.fr//?idc=1002837&idt=th751"
"conclusión definitiva","conclusionDefinitiva","https://opentheso.huma-num.fr//?idc=ld6mk1fw39cj97q&idt=th751"
"auto de votos del Consejo","autoVotosConsejo","https://opentheso.huma-num.fr//?idc=1002840&idt=th751"
"acta de abjuración","actaAbjuracion","https://opentheso.huma-num.fr//?idc=1002843&idt=th751"
"acusación","acusacion","https://opentheso.huma-num.fr//?idc=s7lw86kbffcn08h&idt=th751"
"petición de calificación","peticionCalificacion","https://opentheso.huma-num.fr//?idc=1002803&idt=th751"
"abjuración","abjuracion","https://opentheso.huma-num.fr//?idc=q16qb6qbchxhjdj&idt=th751"
"procedimientos","procedimientos","https://opentheso.huma-num.fr//?idc=fpdgb9t60001df4&idt=th751"
"creación de comisión","creacionComision","https://opentheso.huma-num.fr//?idc=1002792&idt=th751"
"delación","delacion","https://opentheso.huma-num.fr//?idc=1002765&idt=th751"
"mandamiento de citación","mandamientoCitacion","https://opentheso.huma-num.fr//?idc=1003229&idt=th751"
"portada","portada","https://opentheso.huma-num.fr//?idc=1002858&idt=th751"
"publicación sentencia del tormento","publicacionSentenciaTormento","https://opentheso.huma-num.fr//?idc=1002833&idt=th751"
"publicación de sentencia","publicacionSentencia","https://opentheso.huma-num.fr//?idc=1002842&idt=th751"
"tachas","tachas","https://opentheso.huma-num.fr//?idc=1002828&idt=th751"
"votos de tormento","votosTormento","https://opentheso.huma-num.fr//?idc=1002829&idt=th751"
"petición de un particular","peticionParticular","https://opentheso.huma-num.fr//?idc=1002788&idt=th751"
"conclusión del acusado","conclusionAcusado","https://opentheso.huma-num.fr//?idc=775282&idt=th751"
"prendimiento","prendimiento","https://opentheso.huma-num.fr//?idc=1002809&idt=th751"
"tormento","tormento","https://opentheso.huma-num.fr//?idc=1002827&idt=th751"
"calificación misiva","calificacionMisiva","https://opentheso.huma-num.fr//?idc=1002806&idt=th751"
"recorrección de registros","recorreccionRegistros","https://opentheso.huma-num.fr//?idc=1002798&idt=th751"
"autodelación en audiencia","autodelacionAudiencia","https://opentheso.huma-num.fr//?idc=1002786&idt=th751"
"mandamiento de prisión","mandamientoPrision","https://opentheso.huma-num.fr//?idc=1002812&idt=th751"
"delación en audiencia","delacionAudiencia","https://opentheso.huma-num.fr//?idc=1002783&idt=th751"
"fase de Instrucción","faseInstruccion","https://opentheso.huma-num.fr//?idc=1002807&idt=th751"
"secuestro","secuestro","https://opentheso.huma-num.fr//?idc=775311&idt=th751"
"ratificación acusado","ratificacionAcusado","https://opentheso.huma-num.fr//?idc=775319&idt=th751"
"ratificación testigo","ratificacionTestigo","https://opentheso.huma-num.fr//?idc=jk3875f486pxh7t&idt=th751"
"relación de autos de fe","relacionAutos","https://opentheso.huma-num.fr//?idc=775314&idt=th751"
"juramento del compareciente","juramentoCompareciente","https://opentheso.huma-num.fr//?idc=xvck8mn3r81fjh7&idt=th751"
"relación de causas finalizadas","relacionCausasFinalizadas","https://opentheso.huma-num.fr//?idc=775313&idt=th751"
"relación de causas","relacionCausas","https://opentheso.huma-num.fr//?idc=775309&idt=th751"
"mandamiento elaboración de informe","mandamientoElaboracionInforme","https://opentheso.huma-num.fr//?idc=775310&idt=th751"
"relación de causas pendientes","relacionCausasPendientes","https://opentheso.huma-num.fr//?idc=775316&idt=th751"
"cuestionario","cuestionario","https://opentheso.huma-num.fr//?idc=775317&idt=th751"
"citación del acusado","citacionAcusado","https://opentheso.huma-num.fr//?idc=8g28h3d3904tr4n&idt=th751"
"relación de visita","relacionVisita","https://opentheso.huma-num.fr//?idc=775315&idt=th751"
"interrogatorio de abono","interrogatorioAbono","https://opentheso.huma-num.fr//?idc=lt7spjrl258ww6k&idt=th751"
"conclusión a prueba","conclusionPrueba","https://opentheso.huma-num.fr//?idc=775336&idt=th751"
"petición de recorrección de registros","peticionRecorreccionRegistros","https://opentheso.huma-num.fr//?idc=1002799&idt=th751"
"sentencia de tormento","sentenciaTormento","https://opentheso.huma-num.fr//?idc=1002830&idt=th751"
"ratificación abono","ratificacionAbono","https://opentheso.huma-num.fr//?idc=775333&idt=th751"
"respuesta del letrado","respuestaLetrado","https://opentheso.huma-num.fr//?idc=775335&idt=th751"
"votos de sentencia","votosSentencia","https://opentheso.huma-num.fr//?idc=1002839&idt=th751"
"confesión","confesion","https://opentheso.huma-num.fr//?idc=775493&idt=th751"
"petición judicial del fiscal","peticionJudicialFiscal","https://opentheso.huma-num.fr//?idc=775496&idt=th751"
"petición del acusado","peticionAcusado","https://opentheso.huma-num.fr//?idc=775495&idt=th751"
"petición judicial del procurador","peticionJudicialProcurador","https://opentheso.huma-num.fr//?idc=775497&idt=th751"
"petición","peticion","https://opentheso.huma-num.fr//?idc=775494&idt=th751"
"conclusión de la causa","conclusionCausa","https://opentheso.huma-num.fr//?idc=824p60n3f05nd8x&idt=th751"
