"Id-relación","concept_id","related_concept_id","relation_type"
1,2,"https://opentheso.huma-num.fr//?idc=67b24lsg8h94v50&idt=th751","broader"
2,4,"https://opentheso.huma-num.fr//?idc=67b24lsg8h94v50&idt=th751","broader"
3,4,"https://opentheso.huma-num.fr//?idc=1002783&idt=th751","narrower"
4,4,"https://opentheso.huma-num.fr//?idc=1002786&idt=th751","narrower"
5,4,"https://opentheso.huma-num.fr//?idc=1002793&idt=th751","narrower"
6,4,"https://opentheso.huma-num.fr//?idc=1002794&idt=th751","narrower"
7,4,"https://opentheso.huma-num.fr//?idc=1002797&idt=th751","narrower"
8,4,"https://opentheso.huma-num.fr//?idc=1002805&idt=th751","narrower"
9,4,"https://opentheso.huma-num.fr//?idc=1002815&idt=th751","narrower"
10,4,"https://opentheso.huma-num.fr//?idc=1002816&idt=th751","narrower"
11,4,"https://opentheso.huma-num.fr//?idc=1002817&idt=th751","narrower"
12,4,"https://opentheso.huma-num.fr//?idc=1002818&idt=th751","narrower"
13,4,"https://opentheso.huma-num.fr//?idc=1002821&idt=th751","narrower"
14,4,"https://opentheso.huma-num.fr//?idc=1002822&idt=th751","narrower"
15,4,"https://opentheso.huma-num.fr//?idc=1002825&idt=th751","narrower"
16,4,"https://opentheso.huma-num.fr//?idc=1002828&idt=th751","narrower"
17,4,"https://opentheso.huma-num.fr//?idc=1002831&idt=th751","narrower"
18,4,"https://opentheso.huma-num.fr//?idc=1002832&idt=th751","narrower"
19,4,"https://opentheso.huma-num.fr//?idc=1002833&idt=th751","narrower"
20,4,"https://opentheso.huma-num.fr//?idc=1002834&idt=th751","narrower"
21,4,"https://opentheso.huma-num.fr//?idc=1002839&idt=th751","narrower"
22,4,"https://opentheso.huma-num.fr//?idc=1002842&idt=th751","narrower"
23,4,"https://opentheso.huma-num.fr//?idc=1002843&idt=th751","narrower"
24,4,"https://opentheso.huma-num.fr//?idc=1003231&idt=th751","narrower"
25,4,"https://opentheso.huma-num.fr//?idc=775282&idt=th751","narrower"
26,4,"https://opentheso.huma-num.fr//?idc=775317&idt=th751","narrower"
27,4,"https://opentheso.huma-num.fr//?idc=775335&idt=th751","narrower"
28,4,"https://opentheso.huma-num.fr//?idc=775493&idt=th751","narrower"
29,4,"https://opentheso.huma-num.fr//?idc=8fv9843p9vlftm6&idt=th751","narrower"
30,4,"https://opentheso.huma-num.fr//?idc=9k6th2v3c61h1hk&idt=th751","narrower"
31,4,"https://opentheso.huma-num.fr//?idc=jk3875f486pxh7t&idt=th751","narrower"
32,4,"https://opentheso.huma-num.fr//?idc=ld6mk1fw39cj97q&idt=th751","narrower"
33,4,"https://opentheso.huma-num.fr//?idc=lt7spjrl258ww6k&idt=th751","narrower"
34,6,"https://opentheso.huma-num.fr//?idc=67b24lsg8h94v50&idt=th751","broader"
35,6,"https://opentheso.huma-num.fr//?idc=1002812&idt=th751","narrower"
36,6,"https://opentheso.huma-num.fr//?idc=1002829&idt=th751","narrower"
37,6,"https://opentheso.huma-num.fr//?idc=1002830&idt=th751","narrower"
38,6,"https://opentheso.huma-num.fr//?idc=1002837&idt=th751","narrower"
39,6,"https://opentheso.huma-num.fr//?idc=1002840&idt=th751","narrower"
40,6,"https://opentheso.huma-num.fr//?idc=1003229&idt=th751","narrower"
41,8,"https://opentheso.huma-num.fr//?idc=67b24lsg8h94v50&idt=th751","broader"
42,8,"https://opentheso.huma-num.fr//?idc=1002830&idt=th751","narrower"
43,8,"https://opentheso.huma-num.fr//?idc=1002841&idt=th751","narrower"
44,8,"https://opentheso.huma-num.fr//?idc=1002842&idt=th751","narrower"
45,10,"https://opentheso.huma-num.fr//?idc=1002789&idt=th751","broader"
46,10,"https://opentheso.huma-num.fr//?idc=1002807&idt=th751","broader"
47,10,"https://opentheso.huma-num.fr//?idc=1002827&idt=th751","broader"
48,10,"https://opentheso.huma-num.fr//?idc=73hrxpm51d41jvl&idt=th751","broader"
49,12,"https://opentheso.huma-num.fr//?idc=0jf23lqcgdh27n6&idt=th751","broader"
50,12,"https://opentheso.huma-num.fr//?idc=1002798&idt=th751","broader"
51,12,"https://opentheso.huma-num.fr//?idc=1003232&idt=th751","broader"
52,14,"https://opentheso.huma-num.fr//?idc=0jf23lqcgdh27n6&idt=th751","broader"
53,14,"https://opentheso.huma-num.fr//?idc=1002765&idt=th751","broader"
54,14,"https://opentheso.huma-num.fr//?idc=1003232&idt=th751","broader"
55,16,"https://opentheso.huma-num.fr//?idc=1003232&idt=th751","broader"
56,16,"https://opentheso.huma-num.fr//?idc=73hrxpm51d41jvl&idt=th751","broader"
57,16,"https://opentheso.huma-num.fr//?idc=qlfk2djcv0sb9lx&idt=th751","broader"
58,16,"https://opentheso.huma-num.fr//?idc=xvck8mn3r81fjh7&idt=th751","broader"
59,18,"https://opentheso.huma-num.fr//?idc=fpdgb9t60001df4&idt=th751","broader"
60,18,"https://opentheso.huma-num.fr//?idc=1002803&idt=th751","narrower"
61,18,"https://opentheso.huma-num.fr//?idc=1002804&idt=th751","narrower"
62,18,"https://opentheso.huma-num.fr//?idc=1002805&idt=th751","narrower"
63,18,"https://opentheso.huma-num.fr//?idc=1002806&idt=th751","narrower"
64,20,"https://opentheso.huma-num.fr//?idc=0jf23lqcgdh27n6&idt=th751","broader"
65,20,"https://opentheso.huma-num.fr//?idc=1002792&idt=th751","broader"
66,20,"https://opentheso.huma-num.fr//?idc=1003232&idt=th751","broader"
67,22,"https://opentheso.huma-num.fr//?idc=fpdgb9t60001df4&idt=th751","broader"
68,22,"https://opentheso.huma-num.fr//?idc=1002821&idt=th751","narrower"
69,22,"https://opentheso.huma-num.fr//?idc=1002825&idt=th751","narrower"
70,22,"https://opentheso.huma-num.fr//?idc=1002828&idt=th751","narrower"
71,22,"https://opentheso.huma-num.fr//?idc=1003231&idt=th751","narrower"
72,22,"https://opentheso.huma-num.fr//?idc=775317&idt=th751","narrower"
73,22,"https://opentheso.huma-num.fr//?idc=775335&idt=th751","narrower"
74,22,"https://opentheso.huma-num.fr//?idc=jk3875f486pxh7t&idt=th751","narrower"
75,22,"https://opentheso.huma-num.fr//?idc=lt7spjrl258ww6k&idt=th751","narrower"
76,24,"https://opentheso.huma-num.fr//?idc=0jf23lqcgdh27n6&idt=th751","broader"
77,24,"https://opentheso.huma-num.fr//?idc=1002792&idt=th751","broader"
78,24,"https://opentheso.huma-num.fr//?idc=1003232&idt=th751","broader"
79,26,"https://opentheso.huma-num.fr//?idc=0jf23lqcgdh27n6&idt=th751","broader"
80,26,"https://opentheso.huma-num.fr//?idc=1003232&idt=th751","broader"
81,26,"https://opentheso.huma-num.fr//?idc=6sr3rc53jxr39qw&idt=th751","broader"
82,28,"https://opentheso.huma-num.fr//?idc=1002782&idt=th751","narrower"
83,28,"https://opentheso.huma-num.fr//?idc=1002783&idt=th751","narrower"
84,28,"https://opentheso.huma-num.fr//?idc=1002786&idt=th751","narrower"
85,28,"https://opentheso.huma-num.fr//?idc=1002787&idt=th751","narrower"
86,28,"https://opentheso.huma-num.fr//?idc=1002788&idt=th751","narrower"
87,28,"https://opentheso.huma-num.fr//?idc=1002790&idt=th751","narrower"
88,28,"https://opentheso.huma-num.fr//?idc=1002791&idt=th751","narrower"
89,28,"https://opentheso.huma-num.fr//?idc=1002793&idt=th751","narrower"
90,28,"https://opentheso.huma-num.fr//?idc=1002794&idt=th751","narrower"
91,28,"https://opentheso.huma-num.fr//?idc=1002795&idt=th751","narrower"
92,28,"https://opentheso.huma-num.fr//?idc=1002797&idt=th751","narrower"
93,28,"https://opentheso.huma-num.fr//?idc=1002799&idt=th751","narrower"
94,28,"https://opentheso.huma-num.fr//?idc=1002800&idt=th751","narrower"
95,28,"https://opentheso.huma-num.fr//?idc=1002801&idt=th751","narrower"
96,28,"https://opentheso.huma-num.fr//?idc=1002803&idt=th751","narrower"
97,28,"https://opentheso.huma-num.fr//?idc=1002804&idt=th751","narrower"
98,28,"https://opentheso.huma-num.fr//?idc=1002805&idt=th751","narrower"
99,28,"https://opentheso.huma-num.fr//?idc=1002806&idt=th751","narrower"
100,28,"https://opentheso.huma-num.fr//?idc=1002858&idt=th751","narrower"
101,28,"https://opentheso.huma-num.fr//?idc=1003228&idt=th751","narrower"
102,28,"https://opentheso.huma-num.fr//?idc=775310&idt=th751","narrower"
103,28,"https://opentheso.huma-num.fr//?idc=jk3875f486pxh7t&idt=th751","narrower"
104,28,"https://opentheso.huma-num.fr//?idc=kmv180b186q9jgw&idt=th751","narrower"
105,28,"https://opentheso.huma-num.fr//?idc=pt458f4nlb2s2x7&idt=th751","narrower"
106,30,"https://opentheso.huma-num.fr//?idc=1002807&idt=th751","broader"
107,30,"https://opentheso.huma-num.fr//?idc=1002809&idt=th751","broader"
108,30,"https://opentheso.huma-num.fr//?idc=73hrxpm51d41jvl&idt=th751","broader"
109,32,"https://opentheso.huma-num.fr//?idc=fpdgb9t60001df4&idt=th751","broader"
110,32,"https://opentheso.huma-num.fr//?idc=nqw3bh5wpk3kbkp&idt=th751","narrower"
111,34,"https://opentheso.huma-num.fr//?idc=0jf23lqcgdh27n6&idt=th751","broader"
112,34,"https://opentheso.huma-num.fr//?idc=1002792&idt=th751","broader"
113,34,"https://opentheso.huma-num.fr//?idc=1003232&idt=th751","broader"
114,36,"https://opentheso.huma-num.fr//?idc=fpdgb9t60001df4&idt=th751","broader"
115,36,"https://opentheso.huma-num.fr//?idc=1002822&idt=th751","narrower"
116,36,"https://opentheso.huma-num.fr//?idc=1003231&idt=th751","narrower"
117,38,"https://opentheso.huma-num.fr//?idc=0jf23lqcgdh27n6&idt=th751","broader"
118,38,"https://opentheso.huma-num.fr//?idc=1002802&idt=th751","broader"
119,38,"https://opentheso.huma-num.fr//?idc=1003232&idt=th751","broader"
120,40,"https://opentheso.huma-num.fr//?idc=1002807&idt=th751","broader"
121,40,"https://opentheso.huma-num.fr//?idc=1002823&idt=th751","broader"
122,40,"https://opentheso.huma-num.fr//?idc=73hrxpm51d41jvl&idt=th751","broader"
123,40,"https://opentheso.huma-num.fr//?idc=w26c7vkw75f2d77&idt=th751","broader"
124,42,"https://opentheso.huma-num.fr//?idc=fpdgb9t60001df4&idt=th751","broader"
125,42,"https://opentheso.huma-num.fr//?idc=1002797&idt=th751","narrower"
126,42,"https://opentheso.huma-num.fr//?idc=1002817&idt=th751","narrower"
127,42,"https://opentheso.huma-num.fr//?idc=1002831&idt=th751","narrower"
128,42,"https://opentheso.huma-num.fr//?idc=775493&idt=th751","narrower"
129,42,"https://opentheso.huma-num.fr//?idc=lt7spjrl258ww6k&idt=th751","narrower"
130,44,"https://opentheso.huma-num.fr//?idc=0jf23lqcgdh27n6&idt=th751","broader"
131,44,"https://opentheso.huma-num.fr//?idc=1002798&idt=th751","broader"
132,44,"https://opentheso.huma-num.fr//?idc=1003232&idt=th751","broader"
133,46,"https://opentheso.huma-num.fr//?idc=1002807&idt=th751","broader"
134,46,"https://opentheso.huma-num.fr//?idc=73hrxpm51d41jvl&idt=th751","broader"
135,46,"https://opentheso.huma-num.fr//?idc=8g28h3d3904tr4n&idt=th751","broader"
136,48,"https://opentheso.huma-num.fr//?idc=0jf23lqcgdh27n6&idt=th751","broader"
137,48,"https://opentheso.huma-num.fr//?idc=1002792&idt=th751","broader"
138,48,"https://opentheso.huma-num.fr//?idc=1003232&idt=th751","broader"
139,50,"https://opentheso.huma-num.fr//?idc=fpdgb9t60001df4&idt=th751","broader"
140,50,"https://opentheso.huma-num.fr//?idc=1002836&idt=th751","narrower"
141,50,"https://opentheso.huma-num.fr//?idc=1002837&idt=th751","narrower"
142,52,"https://opentheso.huma-num.fr//?idc=1002802&idt=th751","broader"
143,52,"https://opentheso.huma-num.fr//?idc=1003232&idt=th751","broader"
144,52,"https://opentheso.huma-num.fr//?idc=73hrxpm51d41jvl&idt=th751","broader"
145,54,"https://opentheso.huma-num.fr//?idc=1002807&idt=th751","broader"
146,54,"https://opentheso.huma-num.fr//?idc=1002823&idt=th751","broader"
147,54,"https://opentheso.huma-num.fr//?idc=73hrxpm51d41jvl&idt=th751","broader"
148,56,"https://opentheso.huma-num.fr//?idc=0jf23lqcgdh27n6&idt=th751","broader"
149,56,"https://opentheso.huma-num.fr//?idc=1002807&idt=th751","broader"
150,56,"https://opentheso.huma-num.fr//?idc=1002809&idt=th751","broader"
151,56,"https://opentheso.huma-num.fr//?idc=1002810&idt=th751","broader"
152,58,"https://opentheso.huma-num.fr//?idc=1002807&idt=th751","broader"
153,58,"https://opentheso.huma-num.fr//?idc=73hrxpm51d41jvl&idt=th751","broader"
154,58,"https://opentheso.huma-num.fr//?idc=w26c7vkw75f2d77&idt=th751","broader"
155,60,"https://opentheso.huma-num.fr//?idc=1002807&idt=th751","broader"
156,60,"https://opentheso.huma-num.fr//?idc=1002809&idt=th751","broader"
157,60,"https://opentheso.huma-num.fr//?idc=73hrxpm51d41jvl&idt=th751","broader"
158,62,"https://opentheso.huma-num.fr//?idc=fpdgb9t60001df4&idt=th751","broader"
159,62,"https://opentheso.huma-num.fr//?idc=1002817&idt=th751","narrower"
160,64,"https://opentheso.huma-num.fr//?idc=1002792&idt=th751","broader"
161,64,"https://opentheso.huma-num.fr//?idc=1003232&idt=th751","broader"
162,64,"https://opentheso.huma-num.fr//?idc=73hrxpm51d41jvl&idt=th751","broader"
163,66,"https://opentheso.huma-num.fr//?idc=1002807&idt=th751","broader"
164,66,"https://opentheso.huma-num.fr//?idc=73hrxpm51d41jvl&idt=th751","broader"
165,66,"https://opentheso.huma-num.fr//?idc=775311&idt=th751","broader"
166,66,"https://opentheso.huma-num.fr//?idc=g09xhnw65g05p9p&idt=th751","broader"
167,68,"https://opentheso.huma-num.fr//?idc=1002807&idt=th751","broader"
168,68,"https://opentheso.huma-num.fr//?idc=1002827&idt=th751","broader"
169,68,"https://opentheso.huma-num.fr//?idc=73hrxpm51d41jvl&idt=th751","broader"
170,70,"https://opentheso.huma-num.fr//?idc=1002807&idt=th751","broader"
171,70,"https://opentheso.huma-num.fr//?idc=1003230&idt=th751","broader"
172,70,"https://opentheso.huma-num.fr//?idc=73hrxpm51d41jvl&idt=th751","broader"
173,70,"https://opentheso.huma-num.fr//?idc=qlfk2djcv0sb9lx&idt=th751","broader"
174,70,"https://opentheso.huma-num.fr//?idc=xvck8mn3r81fjh7&idt=th751","broader"
175,72,"https://opentheso.huma-num.fr//?idc=1003232&idt=th751","broader"
176,74,"https://opentheso.huma-num.fr//?idc=1002807&idt=th751","broader"
177,74,"https://opentheso.huma-num.fr//?idc=1002809&idt=th751","broader"
178,74,"https://opentheso.huma-num.fr//?idc=73hrxpm51d41jvl&idt=th751","broader"
179,76,"https://opentheso.huma-num.fr//?idc=fpdgb9t60001df4&idt=th751","broader"
180,76,"https://opentheso.huma-num.fr//?idc=1002818&idt=th751","narrower"
181,78,"https://opentheso.huma-num.fr//?idc=0jf23lqcgdh27n6&idt=th751","broader"
182,78,"https://opentheso.huma-num.fr//?idc=1002807&idt=th751","broader"
183,78,"https://opentheso.huma-num.fr//?idc=s7lw86kbffcn08h&idt=th751","broader"
184,80,"https://opentheso.huma-num.fr//?idc=1002807&idt=th751","broader"
185,80,"https://opentheso.huma-num.fr//?idc=s7lw86kbffcn08h&idt=th751","broader"
186,82,"https://opentheso.huma-num.fr//?idc=1002835&idt=th751","broader"
187,82,"https://opentheso.huma-num.fr//?idc=1002838&idt=th751","broader"
188,82,"https://opentheso.huma-num.fr//?idc=824p60n3f05nd8x&idt=th751","broader"
189,84,"https://opentheso.huma-num.fr//?idc=fpdgb9t60001df4&idt=th751","broader"
190,84,"https://opentheso.huma-num.fr//?idc=1002786&idt=th751","narrower"
191,84,"https://opentheso.huma-num.fr//?idc=1002787&idt=th751","narrower"
192,84,"https://opentheso.huma-num.fr//?idc=1002788&idt=th751","narrower"
193,86,"https://opentheso.huma-num.fr//?idc=67b24lsg8h94v50&idt=th751","broader"
194,86,"https://opentheso.huma-num.fr//?idc=1002782&idt=th751","narrower"
195,86,"https://opentheso.huma-num.fr//?idc=1002787&idt=th751","narrower"
196,86,"https://opentheso.huma-num.fr//?idc=1002788&idt=th751","narrower"
197,86,"https://opentheso.huma-num.fr//?idc=1002790&idt=th751","narrower"
198,86,"https://opentheso.huma-num.fr//?idc=1002791&idt=th751","narrower"
199,86,"https://opentheso.huma-num.fr//?idc=1002795&idt=th751","narrower"
200,86,"https://opentheso.huma-num.fr//?idc=1002799&idt=th751","narrower"
201,86,"https://opentheso.huma-num.fr//?idc=1002800&idt=th751","narrower"
202,86,"https://opentheso.huma-num.fr//?idc=1002801&idt=th751","narrower"
203,86,"https://opentheso.huma-num.fr//?idc=1002803&idt=th751","narrower"
204,86,"https://opentheso.huma-num.fr//?idc=1002804&idt=th751","narrower"
205,86,"https://opentheso.huma-num.fr//?idc=1002806&idt=th751","narrower"
206,86,"https://opentheso.huma-num.fr//?idc=1002819&idt=th751","narrower"
207,86,"https://opentheso.huma-num.fr//?idc=1002836&idt=th751","narrower"
208,86,"https://opentheso.huma-num.fr//?idc=1003228&idt=th751","narrower"
209,86,"https://opentheso.huma-num.fr//?idc=775310&idt=th751","narrower"
210,86,"https://opentheso.huma-num.fr//?idc=ld6mk1fw39cj97q&idt=th751","narrower"
211,86,"https://opentheso.huma-num.fr//?idc=nqw3bh5wpk3kbkp&idt=th751","narrower"
212,88,"https://opentheso.huma-num.fr//?idc=fpdgb9t60001df4&idt=th751","broader"
213,88,"https://opentheso.huma-num.fr//?idc=1002834&idt=th751","narrower"
214,88,"https://opentheso.huma-num.fr//?idc=775319&idt=th751","narrower"
215,88,"https://opentheso.huma-num.fr//?idc=775333&idt=th751","narrower"
216,88,"https://opentheso.huma-num.fr//?idc=jk3875f486pxh7t&idt=th751","narrower"
217,90,"https://opentheso.huma-num.fr//?idc=1002807&idt=th751","broader"
218,90,"https://opentheso.huma-num.fr//?idc=1002827&idt=th751","broader"
219,90,"https://opentheso.huma-num.fr//?idc=73hrxpm51d41jvl&idt=th751","broader"
220,90,"https://opentheso.huma-num.fr//?idc=qlfk2djcv0sb9lx&idt=th751","broader"
221,92,"https://opentheso.huma-num.fr//?idc=1002836&idt=th751","narrower"
222,92,"https://opentheso.huma-num.fr//?idc=1002837&idt=th751","narrower"
223,92,"https://opentheso.huma-num.fr//?idc=1002839&idt=th751","narrower"
224,92,"https://opentheso.huma-num.fr//?idc=1002840&idt=th751","narrower"
225,92,"https://opentheso.huma-num.fr//?idc=1002841&idt=th751","narrower"
226,92,"https://opentheso.huma-num.fr//?idc=1002842&idt=th751","narrower"
227,92,"https://opentheso.huma-num.fr//?idc=1002843&idt=th751","narrower"
228,94,"https://opentheso.huma-num.fr//?idc=1003232&idt=th751","broader"
229,96,"https://opentheso.huma-num.fr//?idc=0jf23lqcgdh27n6&idt=th751","narrower"
230,96,"https://opentheso.huma-num.fr//?idc=1002838&idt=th751","narrower"
231,96,"https://opentheso.huma-num.fr//?idc=22pglkg5d9r4dm1&idt=th751","narrower"
232,96,"https://opentheso.huma-num.fr//?idc=73hrxpm51d41jvl&idt=th751","narrower"
233,96,"https://opentheso.huma-num.fr//?idc=8mdgjb1m4g2dw7s&idt=th751","narrower"
234,98,"https://opentheso.huma-num.fr//?idc=1002792&idt=th751","broader"
235,98,"https://opentheso.huma-num.fr//?idc=1003232&idt=th751","broader"
236,98,"https://opentheso.huma-num.fr//?idc=73hrxpm51d41jvl&idt=th751","broader"
237,100,"https://opentheso.huma-num.fr//?idc=1002807&idt=th751","broader"
238,100,"https://opentheso.huma-num.fr//?idc=73hrxpm51d41jvl&idt=th751","broader"
239,100,"https://opentheso.huma-num.fr//?idc=w26c7vkw75f2d77&idt=th751","broader"
240,102,"https://opentheso.huma-num.fr//?idc=0jf23lqcgdh27n6&idt=th751","broader"
241,102,"https://opentheso.huma-num.fr//?idc=0qlk9fvv0l4npw9&idt=th751","broader"
242,102,"https://opentheso.huma-num.fr//?idc=1002835&idt=th751","broader"
243,104,"https://opentheso.huma-num.fr//?idc=0qlk9fvv0l4npw9&idt=th751","broader"
244,104,"https://opentheso.huma-num.fr//?idc=1002835&idt=th751","broader"
245,104,"https://opentheso.huma-num.fr//?idc=22pglkg5d9r4dm1&idt=th751","broader"
246,106,"https://opentheso.huma-num.fr//?idc=0jf23lqcgdh27n6&idt=th751","broader"
247,106,"https://opentheso.huma-num.fr//?idc=1002807&idt=th751","broader"
248,106,"https://opentheso.huma-num.fr//?idc=73hrxpm51d41jvl&idt=th751","broader"
249,106,"https://opentheso.huma-num.fr//?idc=824p60n3f05nd8x&idt=th751","broader"
250,108,"https://opentheso.huma-num.fr//?idc=1002835&idt=th751","broader"
251,108,"https://opentheso.huma-num.fr//?idc=22pglkg5d9r4dm1&idt=th751","broader"
252,108,"https://opentheso.huma-num.fr//?idc=824p60n3f05nd8x&idt=th751","broader"
253,110,"https://opentheso.huma-num.fr//?idc=1002835&idt=th751","broader"
254,110,"https://opentheso.huma-num.fr//?idc=73hrxpm51d41jvl&idt=th751","broader"
255,110,"https://opentheso.huma-num.fr//?idc=824p60n3f05nd8x&idt=th751","broader"
256,110,"https://opentheso.huma-num.fr//?idc=q16qb6qbchxhjdj&idt=th751","broader"
257,112,"https://opentheso.huma-num.fr//?idc=fpdgb9t60001df4&idt=th751","broader"
258,112,"https://opentheso.huma-num.fr//?idc=1002819&idt=th751","narrower"
259,112,"https://opentheso.huma-num.fr//?idc=1002824&idt=th751","narrower"
260,112,"https://opentheso.huma-num.fr//?idc=775335&idt=th751","narrower"
261,114,"https://opentheso.huma-num.fr//?idc=0jf23lqcgdh27n6&idt=th751","broader"
262,114,"https://opentheso.huma-num.fr//?idc=1002802&idt=th751","broader"
263,114,"https://opentheso.huma-num.fr//?idc=1003232&idt=th751","broader"
264,116,"https://opentheso.huma-num.fr//?idc=fpdgb9t60001df4&idt=th751","broader"
265,116,"https://opentheso.huma-num.fr//?idc=1002843&idt=th751","narrower"
266,118,"https://opentheso.huma-num.fr//?idc=0qlk9fvv0l4npw9&idt=th751","narrower"
267,118,"https://opentheso.huma-num.fr//?idc=1002765&idt=th751","narrower"
268,118,"https://opentheso.huma-num.fr//?idc=1002789&idt=th751","narrower"
269,118,"https://opentheso.huma-num.fr//?idc=1002792&idt=th751","narrower"
270,118,"https://opentheso.huma-num.fr//?idc=1002798&idt=th751","narrower"
271,118,"https://opentheso.huma-num.fr//?idc=1002802&idt=th751","narrower"
272,118,"https://opentheso.huma-num.fr//?idc=1002809&idt=th751","narrower"
273,118,"https://opentheso.huma-num.fr//?idc=1002810&idt=th751","narrower"
274,118,"https://opentheso.huma-num.fr//?idc=1002823&idt=th751","narrower"
275,118,"https://opentheso.huma-num.fr//?idc=1002827&idt=th751","narrower"
276,118,"https://opentheso.huma-num.fr//?idc=1003230&idt=th751","narrower"
277,118,"https://opentheso.huma-num.fr//?idc=6sr3rc53jxr39qw&idt=th751","narrower"
278,118,"https://opentheso.huma-num.fr//?idc=775311&idt=th751","narrower"
279,118,"https://opentheso.huma-num.fr//?idc=775336&idt=th751","narrower"
280,118,"https://opentheso.huma-num.fr//?idc=775494&idt=th751","narrower"
281,118,"https://opentheso.huma-num.fr//?idc=824p60n3f05nd8x&idt=th751","narrower"
282,118,"https://opentheso.huma-num.fr//?idc=8g28h3d3904tr4n&idt=th751","narrower"
283,118,"https://opentheso.huma-num.fr//?idc=g09xhnw65g05p9p&idt=th751","narrower"
284,118,"https://opentheso.huma-num.fr//?idc=q16qb6qbchxhjdj&idt=th751","narrower"
285,118,"https://opentheso.huma-num.fr//?idc=qlfk2djcv0sb9lx&idt=th751","narrower"
286,118,"https://opentheso.huma-num.fr//?idc=s7lw86kbffcn08h&idt=th751","narrower"
287,118,"https://opentheso.huma-num.fr//?idc=w26c7vkw75f2d77&idt=th751","narrower"
288,118,"https://opentheso.huma-num.fr//?idc=xvck8mn3r81fjh7&idt=th751","narrower"
289,120,"https://opentheso.huma-num.fr//?idc=fpdgb9t60001df4&idt=th751","broader"
290,120,"https://opentheso.huma-num.fr//?idc=1002790&idt=th751","narrower"
291,120,"https://opentheso.huma-num.fr//?idc=1002791&idt=th751","narrower"
292,120,"https://opentheso.huma-num.fr//?idc=1002793&idt=th751","narrower"
293,120,"https://opentheso.huma-num.fr//?idc=1002794&idt=th751","narrower"
294,120,"https://opentheso.huma-num.fr//?idc=1002795&idt=th751","narrower"
295,120,"https://opentheso.huma-num.fr//?idc=1003228&idt=th751","narrower"
296,120,"https://opentheso.huma-num.fr//?idc=775310&idt=th751","narrower"
297,122,"https://opentheso.huma-num.fr//?idc=fpdgb9t60001df4&idt=th751","broader"
298,122,"https://opentheso.huma-num.fr//?idc=1002782&idt=th751","narrower"
299,122,"https://opentheso.huma-num.fr//?idc=1002783&idt=th751","narrower"
300,124,"https://opentheso.huma-num.fr//?idc=1002807&idt=th751","broader"
301,124,"https://opentheso.huma-num.fr//?idc=22pglkg5d9r4dm1&idt=th751","broader"
302,124,"https://opentheso.huma-num.fr//?idc=8g28h3d3904tr4n&idt=th751","broader"
303,126,"https://opentheso.huma-num.fr//?idc=1003232&idt=th751","broader"
304,128,"https://opentheso.huma-num.fr//?idc=1002807&idt=th751","broader"
305,128,"https://opentheso.huma-num.fr//?idc=1002827&idt=th751","broader"
306,128,"https://opentheso.huma-num.fr//?idc=73hrxpm51d41jvl&idt=th751","broader"
307,130,"https://opentheso.huma-num.fr//?idc=1002835&idt=th751","broader"
308,130,"https://opentheso.huma-num.fr//?idc=1002838&idt=th751","broader"
309,130,"https://opentheso.huma-num.fr//?idc=73hrxpm51d41jvl&idt=th751","broader"
310,130,"https://opentheso.huma-num.fr//?idc=824p60n3f05nd8x&idt=th751","broader"
311,132,"https://opentheso.huma-num.fr//?idc=fpdgb9t60001df4&idt=th751","broader"
312,132,"https://opentheso.huma-num.fr//?idc=1002812&idt=th751","narrower"
313,132,"https://opentheso.huma-num.fr//?idc=1002815&idt=th751","narrower"
314,132,"https://opentheso.huma-num.fr//?idc=1002816&idt=th751","narrower"
315,132,"https://opentheso.huma-num.fr//?idc=8fv9843p9vlftm6&idt=th751","narrower"
316,132,"https://opentheso.huma-num.fr//?idc=nqw3bh5wpk3kbkp&idt=th751","narrower"
317,134,"https://opentheso.huma-num.fr//?idc=1002807&idt=th751","broader"
318,134,"https://opentheso.huma-num.fr//?idc=73hrxpm51d41jvl&idt=th751","broader"
319,134,"https://opentheso.huma-num.fr//?idc=w26c7vkw75f2d77&idt=th751","broader"
320,136,"https://opentheso.huma-num.fr//?idc=1002807&idt=th751","broader"
321,136,"https://opentheso.huma-num.fr//?idc=1002827&idt=th751","broader"
322,136,"https://opentheso.huma-num.fr//?idc=22pglkg5d9r4dm1&idt=th751","broader"
323,138,"https://opentheso.huma-num.fr//?idc=1002765&idt=th751","broader"
324,138,"https://opentheso.huma-num.fr//?idc=1003232&idt=th751","broader"
325,138,"https://opentheso.huma-num.fr//?idc=73hrxpm51d41jvl&idt=th751","broader"
326,138,"https://opentheso.huma-num.fr//?idc=xvck8mn3r81fjh7&idt=th751","broader"
327,140,"https://opentheso.huma-num.fr//?idc=1002807&idt=th751","broader"
328,140,"https://opentheso.huma-num.fr//?idc=73hrxpm51d41jvl&idt=th751","broader"
329,140,"https://opentheso.huma-num.fr//?idc=824p60n3f05nd8x&idt=th751","broader"
330,142,"https://opentheso.huma-num.fr//?idc=0jf23lqcgdh27n6&idt=th751","broader"
331,142,"https://opentheso.huma-num.fr//?idc=1003232&idt=th751","broader"
332,142,"https://opentheso.huma-num.fr//?idc=6sr3rc53jxr39qw&idt=th751","broader"
333,144,"https://opentheso.huma-num.fr//?idc=fpdgb9t60001df4&idt=th751","broader"
334,144,"https://opentheso.huma-num.fr//?idc=1002829&idt=th751","narrower"
335,144,"https://opentheso.huma-num.fr//?idc=1002830&idt=th751","narrower"
336,144,"https://opentheso.huma-num.fr//?idc=1002831&idt=th751","narrower"
337,144,"https://opentheso.huma-num.fr//?idc=1002832&idt=th751","narrower"
338,144,"https://opentheso.huma-num.fr//?idc=1002833&idt=th751","narrower"
339,144,"https://opentheso.huma-num.fr//?idc=1002834&idt=th751","narrower"
340,146,"https://opentheso.huma-num.fr//?idc=0jf23lqcgdh27n6&idt=th751","broader"
341,146,"https://opentheso.huma-num.fr//?idc=1002802&idt=th751","broader"
342,146,"https://opentheso.huma-num.fr//?idc=1003232&idt=th751","broader"
343,148,"https://opentheso.huma-num.fr//?idc=fpdgb9t60001df4&idt=th751","broader"
344,148,"https://opentheso.huma-num.fr//?idc=1002799&idt=th751","narrower"
345,148,"https://opentheso.huma-num.fr//?idc=1002800&idt=th751","narrower"
346,148,"https://opentheso.huma-num.fr//?idc=1002801&idt=th751","narrower"
347,150,"https://opentheso.huma-num.fr//?idc=1003232&idt=th751","broader"
348,150,"https://opentheso.huma-num.fr//?idc=6sr3rc53jxr39qw&idt=th751","broader"
349,150,"https://opentheso.huma-num.fr//?idc=73hrxpm51d41jvl&idt=th751","broader"
350,150,"https://opentheso.huma-num.fr//?idc=xvck8mn3r81fjh7&idt=th751","broader"
351,152,"https://opentheso.huma-num.fr//?idc=1002807&idt=th751","broader"
352,152,"https://opentheso.huma-num.fr//?idc=1002809&idt=th751","broader"
353,152,"https://opentheso.huma-num.fr//?idc=22pglkg5d9r4dm1&idt=th751","broader"
354,154,"https://opentheso.huma-num.fr//?idc=1002812&idt=th751","narrower"
355,154,"https://opentheso.huma-num.fr//?idc=1002815&idt=th751","narrower"
356,154,"https://opentheso.huma-num.fr//?idc=1002816&idt=th751","narrower"
357,154,"https://opentheso.huma-num.fr//?idc=1002817&idt=th751","narrower"
358,154,"https://opentheso.huma-num.fr//?idc=1002818&idt=th751","narrower"
359,154,"https://opentheso.huma-num.fr//?idc=1002819&idt=th751","narrower"
360,154,"https://opentheso.huma-num.fr//?idc=1002821&idt=th751","narrower"
361,154,"https://opentheso.huma-num.fr//?idc=1002822&idt=th751","narrower"
362,154,"https://opentheso.huma-num.fr//?idc=1002824&idt=th751","narrower"
363,154,"https://opentheso.huma-num.fr//?idc=1002825&idt=th751","narrower"
364,154,"https://opentheso.huma-num.fr//?idc=1002828&idt=th751","narrower"
365,154,"https://opentheso.huma-num.fr//?idc=1002829&idt=th751","narrower"
366,154,"https://opentheso.huma-num.fr//?idc=1002830&idt=th751","narrower"
367,154,"https://opentheso.huma-num.fr//?idc=1002831&idt=th751","narrower"
368,154,"https://opentheso.huma-num.fr//?idc=1002832&idt=th751","narrower"
369,154,"https://opentheso.huma-num.fr//?idc=1002833&idt=th751","narrower"
370,154,"https://opentheso.huma-num.fr//?idc=1002834&idt=th751","narrower"
371,154,"https://opentheso.huma-num.fr//?idc=1003229&idt=th751","narrower"
372,154,"https://opentheso.huma-num.fr//?idc=1003231&idt=th751","narrower"
373,154,"https://opentheso.huma-num.fr//?idc=775282&idt=th751","narrower"
374,154,"https://opentheso.huma-num.fr//?idc=775317&idt=th751","narrower"
375,154,"https://opentheso.huma-num.fr//?idc=775335&idt=th751","narrower"
376,154,"https://opentheso.huma-num.fr//?idc=775493&idt=th751","narrower"
377,154,"https://opentheso.huma-num.fr//?idc=8fv9843p9vlftm6&idt=th751","narrower"
378,154,"https://opentheso.huma-num.fr//?idc=9k6th2v3c61h1hk&idt=th751","narrower"
379,154,"https://opentheso.huma-num.fr//?idc=ld6mk1fw39cj97q&idt=th751","narrower"
380,154,"https://opentheso.huma-num.fr//?idc=lt7spjrl258ww6k&idt=th751","narrower"
381,154,"https://opentheso.huma-num.fr//?idc=nqw3bh5wpk3kbkp&idt=th751","narrower"
382,156,"https://opentheso.huma-num.fr//?idc=fpdgb9t60001df4&idt=th751","broader"
383,156,"https://opentheso.huma-num.fr//?idc=1002818&idt=th751","narrower"
384,158,"https://opentheso.huma-num.fr//?idc=1002789&idt=th751","broader"
385,160,"https://opentheso.huma-num.fr//?idc=1002789&idt=th751","broader"
386,160,"https://opentheso.huma-num.fr//?idc=1003232&idt=th751","broader"
387,160,"https://opentheso.huma-num.fr//?idc=73hrxpm51d41jvl&idt=th751","broader"
388,160,"https://opentheso.huma-num.fr//?idc=w26c7vkw75f2d77&idt=th751","broader"
389,162,"https://opentheso.huma-num.fr//?idc=775309&idt=th751","broader"
390,164,"https://opentheso.huma-num.fr//?idc=fpdgb9t60001df4&idt=th751","broader"
391,164,"https://opentheso.huma-num.fr//?idc=1002783&idt=th751","narrower"
392,164,"https://opentheso.huma-num.fr//?idc=1002786&idt=th751","narrower"
393,164,"https://opentheso.huma-num.fr//?idc=1002797&idt=th751","narrower"
394,164,"https://opentheso.huma-num.fr//?idc=1002817&idt=th751","narrower"
395,164,"https://opentheso.huma-num.fr//?idc=lt7spjrl258ww6k&idt=th751","narrower"
396,166,"https://opentheso.huma-num.fr//?idc=775309&idt=th751","broader"
397,168,"https://opentheso.huma-num.fr//?idc=775313&idt=th751","narrower"
398,168,"https://opentheso.huma-num.fr//?idc=775314&idt=th751","narrower"
399,168,"https://opentheso.huma-num.fr//?idc=775315&idt=th751","narrower"
400,168,"https://opentheso.huma-num.fr//?idc=775316&idt=th751","narrower"
401,170,"https://opentheso.huma-num.fr//?idc=0jf23lqcgdh27n6&idt=th751","broader"
402,170,"https://opentheso.huma-num.fr//?idc=1002792&idt=th751","broader"
403,170,"https://opentheso.huma-num.fr//?idc=1003232&idt=th751","broader"
404,172,"https://opentheso.huma-num.fr//?idc=775309&idt=th751","broader"
405,174,"https://opentheso.huma-num.fr//?idc=1002807&idt=th751","broader"
406,174,"https://opentheso.huma-num.fr//?idc=73hrxpm51d41jvl&idt=th751","broader"
407,174,"https://opentheso.huma-num.fr//?idc=w26c7vkw75f2d77&idt=th751","broader"
408,176,"https://opentheso.huma-num.fr//?idc=fpdgb9t60001df4&idt=th751","broader"
409,176,"https://opentheso.huma-num.fr//?idc=1003229&idt=th751","narrower"
410,176,"https://opentheso.huma-num.fr//?idc=9k6th2v3c61h1hk&idt=th751","narrower"
411,178,"https://opentheso.huma-num.fr//?idc=775309&idt=th751","broader"
412,180,"https://opentheso.huma-num.fr//?idc=0jf23lqcgdh27n6&idt=th751","broader"
413,180,"https://opentheso.huma-num.fr//?idc=1002798&idt=th751","broader"
414,180,"https://opentheso.huma-num.fr//?idc=1003232&idt=th751","broader"
415,182,"https://opentheso.huma-num.fr//?idc=1002807&idt=th751","broader"
416,182,"https://opentheso.huma-num.fr//?idc=73hrxpm51d41jvl&idt=th751","broader"
417,182,"https://opentheso.huma-num.fr//?idc=qlfk2djcv0sb9lx&idt=th751","broader"
418,182,"https://opentheso.huma-num.fr//?idc=w26c7vkw75f2d77&idt=th751","broader"
419,182,"https://opentheso.huma-num.fr//?idc=xvck8mn3r81fjh7&idt=th751","broader"
420,184,"https://opentheso.huma-num.fr//?idc=fpdgb9t60001df4&idt=th751","broader"
421,184,"https://opentheso.huma-num.fr//?idc=775335&idt=th751","narrower"
422,186,"https://opentheso.huma-num.fr//?idc=1002807&idt=th751","broader"
423,186,"https://opentheso.huma-num.fr//?idc=1002827&idt=th751","broader"
424,186,"https://opentheso.huma-num.fr//?idc=1002838&idt=th751","broader"
425,186,"https://opentheso.huma-num.fr//?idc=22pglkg5d9r4dm1&idt=th751","broader"
426,188,"https://opentheso.huma-num.fr//?idc=1002789&idt=th751","broader"
427,190,"https://opentheso.huma-num.fr//?idc=1002807&idt=th751","broader"
428,190,"https://opentheso.huma-num.fr//?idc=73hrxpm51d41jvl&idt=th751","broader"
429,190,"https://opentheso.huma-num.fr//?idc=775336&idt=th751","broader"
430,190,"https://opentheso.huma-num.fr//?idc=s7lw86kbffcn08h&idt=th751","broader"
431,190,"https://opentheso.huma-num.fr//?idc=w26c7vkw75f2d77&idt=th751","broader"
432,192,"https://opentheso.huma-num.fr//?idc=1002835&idt=th751","broader"
433,192,"https://opentheso.huma-num.fr//?idc=73hrxpm51d41jvl&idt=th751","broader"
434,192,"https://opentheso.huma-num.fr//?idc=824p60n3f05nd8x&idt=th751","broader"
435,194,"https://opentheso.huma-num.fr//?idc=1002807&idt=th751","broader"
436,194,"https://opentheso.huma-num.fr//?idc=73hrxpm51d41jvl&idt=th751","broader"
437,194,"https://opentheso.huma-num.fr//?idc=qlfk2djcv0sb9lx&idt=th751","broader"
438,196,"https://opentheso.huma-num.fr//?idc=775494&idt=th751","broader"
439,198,"https://opentheso.huma-num.fr//?idc=775494&idt=th751","broader"
440,200,"https://opentheso.huma-num.fr//?idc=fpdgb9t60001df4&idt=th751","broader"
441,200,"https://opentheso.huma-num.fr//?idc=775495&idt=th751","narrower"
442,200,"https://opentheso.huma-num.fr//?idc=775496&idt=th751","narrower"
443,200,"https://opentheso.huma-num.fr//?idc=775497&idt=th751","narrower"
444,202,"https://opentheso.huma-num.fr//?idc=775494&idt=th751","broader"
445,204,"https://opentheso.huma-num.fr//?idc=fpdgb9t60001df4&idt=th751","broader"
446,204,"https://opentheso.huma-num.fr//?idc=1002839&idt=th751","narrower"
447,204,"https://opentheso.huma-num.fr//?idc=1002840&idt=th751","narrower"
448,204,"https://opentheso.huma-num.fr//?idc=1002841&idt=th751","narrower"
449,204,"https://opentheso.huma-num.fr//?idc=1002842&idt=th751","narrower"
450,204,"https://opentheso.huma-num.fr//?idc=1002843&idt=th751","narrower"
451,204,"https://opentheso.huma-num.fr//?idc=775282&idt=th751","narrower"
452,204,"https://opentheso.huma-num.fr//?idc=ld6mk1fw39cj97q&idt=th751","narrower"
